final project
…
library(tidyr)
# Remove/modify outliers 
a <- female %>% filter(inctot != 9999999)
lowerq <- quantile(a$inctot)[2]
upperq <- quantile(a$inctot)[4]
iqr = upperq - lowerq
upper_outlier <- (iqr * 2) + upperq
lower_outlier <- lowerq - (iqr * 2)
a$inctot[a$inctot > upper_outlier] <- upper_outlier
a$inctot[a$inctot < lower_outlier] <- lower_outlier
a

## # A tibble: 162,280 x 17
##    hhincome nchild eldch yngch sex     age marst marrno race  hispan citizen
##       <dbl> <fct>  <dbl> <dbl> <fct> <dbl> <fct>  <dbl> <fct>  <dbl> <fct>  
##  1       NA 0         NA    NA fema~    58 Sing~      0 "Afr~      0 0      
##  2       NA 0         NA    NA fema~    18 Sing~      0 "Whi~      0 0      
##  3       NA 0         NA    NA fema~    18 Sing~      0 "Whi~      0 0      
##  4       NA 0         NA    NA fema~    54 Sing~      0 "Whi~      0 0      
##  5       NA 0         NA    NA fema~    82 Marr~      2 "His~      1 0      
##  6       NA 0         NA    NA fema~    70 Sing~      0 "Afr~      0 0      
##  7       NA 0         NA    NA fema~    27 Sing~      0 "Whi~      0 0      
##  8       NA 0         NA    NA fema~    19 Sing~      0 "His~      1 0      
##  9       NA 0         NA    NA fema~    18 Sing~      0 "Whi~      0 0      
## 10       NA 0         NA    NA fema~    69 Marr~      1 "Asi~      0 2      
## # ... with 162,270 more rows, and 6 more variables: speakeng <fct>, educ <fct>,
## #   uhrswork <dbl>, inctot <dbl>, child_binary <fct>, age_interval <fct>
…
